lab1
…
              Analisaremos os episódios das series Grimm e Elementary.

Houve duas temporadas: quais foram os melhores episódios? A melhor temporada?

episodes = read_csv(here("data/series_from_imdb.csv"), 
                    progress = FALSE,
                    col_types = cols(.default = col_double(), 
                                     series_name = col_character(), 
                                     episode = col_character(), 
                                     url = col_character(),
                                     season = col_character()))
    series = episodes %>% filter(series_name %in% c("Chuck","Grimm", "Elementary", "Cold Case", "Covert Affairs"))
    series

## # A tibble: 565 x 18
##    series_name episode    series_ep season season_ep url       user_rating
##    <chr>       <chr>          <dbl> <chr>      <dbl> <chr>           <dbl>
##  1 Grimm       Pilot             1. 1             1. http://w…        8.10
##  2 Grimm       Bears Wil…        2. 1             2. http://w…        7.80
##  3 Grimm       BeeWare           3. 1             3. http://w…        7.90
##  4 Grimm       Lonelyhea…        4. 1             4. http://w…        8.00
##  5 Grimm       Danse Mac…        5. 1             5. http://w…        8.20
##  6 Grimm       The Three…        6. 1             6. http://w…        8.30
##  7 Grimm       Let Your …        7. 1             7. http://w…        8.20
##  8 Grimm       Game Ogre         8. 1             8. http://w…        8.40
##  9 Grimm       Of Mouse …        9. 1             9. http://w…        8.00
## 10 Grimm       Organ Gri…       10. 1            10. http://w…        8.40
## # ... with 555 more rows, and 11 more variables: user_votes <dbl>,
## #   r1 <dbl>, r2 <dbl>, r3 <dbl>, r4 <dbl>, r5 <dbl>, r6 <dbl>, r7 <dbl>,
## #   r8 <dbl>, r9 <dbl>, r10 <dbl>
…
4 - Dentre todas as séries, qual a mais bem avaliada ?

series2 <- series %>% 
    group_by(series_name, season) %>% 
        summarize(media_temporada = mean(user_rating))

series3 <- series2 %>% 
    group_by(series_name, season) %>% 
        summarize(media_serie = mean(media_temporada))

series %>% 
    group_by(series_name, season) %>% 
        summarize(media_temporada = mean(user_rating))

## # A tibble: 28 x 3
## # Groups:   series_name [?]
##    series_name season media_temporada
##    <chr>       <chr>            <dbl>
##  1 Chuck       1                 8.35
##  2 Chuck       2                 8.79
##  3 Chuck       3                 8.94
##  4 Chuck       4                 8.62
##  5 Chuck       5                 8.57
##  6 Cold Case   1                 7.86
##  7 Cold Case   2                 8.11
##  8 Cold Case   3                 8.07
##  9 Cold Case   4                 8.16
## 10 Cold Case   5                 8.12
## # ... with 18 more rows
…
